Library\Bee\artifacts\movedfrom\Unity.TextMeshPro.ref.dll_9557809654341403355.movedfrom
Library\Bee\artifacts\movedfrom\UnityEditor.TestRunner.ref.dll_1819107689489022899.movedfrom
Library\Bee\artifacts\movedfrom\UnityEditor.UI.ref.dll_5519394401220875509.movedfrom
Library\Bee\artifacts\movedfrom\UnityEngine.TestRunner.ref.dll_16527383234446630302.movedfrom
Library\Bee\artifacts\movedfrom\UnityEngine.UI.ref.dll_648142665722821984.movedfrom
Library\Bee\artifacts\movedfrom\UnityEditor.Graphs.dll_14265113112470319948.movedfrom
Library\Bee\artifacts\movedfrom\UnityEditor.CoreModule.dll_5457166024261534490.movedfrom
Library\Bee\artifacts\movedfrom\UnityEditor.DeviceSimulatorModule.dll_17981311486793493447.movedfrom
Library\Bee\artifacts\movedfrom\UnityEditor.dll_1090000292733844315.movedfrom
Library\Bee\artifacts\movedfrom\UnityEditor.GraphViewModule.dll_385736526511865740.movedfrom
Library\Bee\artifacts\movedfrom\UnityEditor.PackageManagerUIModule.dll_10448629849516897270.movedfrom
Library\Bee\artifacts\movedfrom\UnityEditor.QuickSearchModule.dll_5364198505512603822.movedfrom
Library\Bee\artifacts\movedfrom\UnityEditor.SceneTemplateModule.dll_4147180937974042863.movedfrom
Library\Bee\artifacts\movedfrom\UnityEditor.UIBuilderModule.dll_6477045360225843392.movedfrom
Library\Bee\artifacts\movedfrom\UnityEditor.UIElementsModule.dll_2672986583406764054.movedfrom
Library\Bee\artifacts\movedfrom\UnityEditor.UIElementsSamplesModule.dll_10033289134918309047.movedfrom
Library\Bee\artifacts\movedfrom\UnityEditor.UIServiceModule.dll_10580406687230970074.movedfrom
Library\Bee\artifacts\movedfrom\UnityEditor.UnityConnectModule.dll_9533278385664212688.movedfrom
Library\Bee\artifacts\movedfrom\UnityEngine.AccessibilityModule.dll_7796622307319675020.movedfrom
Library\Bee\artifacts\movedfrom\UnityEngine.AIModule.dll_16018792998516945454.movedfrom
Library\Bee\artifacts\movedfrom\UnityEngine.AndroidJNIModule.dll_11772765624671391468.movedfrom
Library\Bee\artifacts\movedfrom\UnityEngine.AnimationModule.dll_15267173585131590706.movedfrom
Library\Bee\artifacts\movedfrom\UnityEngine.ARModule.dll_10935008587406856439.movedfrom
Library\Bee\artifacts\movedfrom\UnityEngine.AssetBundleModule.dll_10257696987946763680.movedfrom
Library\Bee\artifacts\movedfrom\UnityEngine.AudioModule.dll_2741788669624244388.movedfrom
Library\Bee\artifacts\movedfrom\UnityEngine.ClothModule.dll_10157067688560670600.movedfrom
Library\Bee\artifacts\movedfrom\UnityEngine.ClusterInputModule.dll_281887587171602838.movedfrom
Library\Bee\artifacts\movedfrom\UnityEngine.ClusterRendererModule.dll_18390226945438988619.movedfrom
Library\Bee\artifacts\movedfrom\UnityEngine.CoreModule.dll_7988421366803459653.movedfrom
Library\Bee\artifacts\movedfrom\UnityEngine.CrashReportingModule.dll_15687099272699289341.movedfrom
Library\Bee\artifacts\movedfrom\UnityEngine.DirectorModule.dll_7701267046232565154.movedfrom
Library\Bee\artifacts\movedfrom\UnityEngine.dll_4739119785922299968.movedfrom
Library\Bee\artifacts\movedfrom\UnityEngine.DSPGraphModule.dll_8084461595054175939.movedfrom
Library\Bee\artifacts\movedfrom\UnityEngine.GameCenterModule.dll_14820939626326835165.movedfrom
Library\Bee\artifacts\movedfrom\UnityEngine.GIModule.dll_8541772039970413128.movedfrom
Library\Bee\artifacts\movedfrom\UnityEngine.GridModule.dll_5498242957268649020.movedfrom
Library\Bee\artifacts\movedfrom\UnityEngine.HotReloadModule.dll_6136334272999583668.movedfrom
Library\Bee\artifacts\movedfrom\UnityEngine.ImageConversionModule.dll_7721759837714510143.movedfrom
Library\Bee\artifacts\movedfrom\UnityEngine.IMGUIModule.dll_6803929322296339589.movedfrom
Library\Bee\artifacts\movedfrom\UnityEngine.InputLegacyModule.dll_2278755641341967249.movedfrom
Library\Bee\artifacts\movedfrom\UnityEngine.InputModule.dll_10124815394479603016.movedfrom
Library\Bee\artifacts\movedfrom\UnityEngine.JSONSerializeModule.dll_14720776150203259158.movedfrom
Library\Bee\artifacts\movedfrom\UnityEngine.LocalizationModule.dll_4771072971830756495.movedfrom
Library\Bee\artifacts\movedfrom\UnityEngine.ParticleSystemModule.dll_3226282646331533963.movedfrom
Library\Bee\artifacts\movedfrom\UnityEngine.PerformanceReportingModule.dll_17939643412434323460.movedfrom
Library\Bee\artifacts\movedfrom\UnityEngine.Physics2DModule.dll_2343513846233942983.movedfrom
Library\Bee\artifacts\movedfrom\UnityEngine.PhysicsModule.dll_4507584300627640309.movedfrom
Library\Bee\artifacts\movedfrom\UnityEngine.ProfilerModule.dll_11323912903162506415.movedfrom
Library\Bee\artifacts\movedfrom\UnityEngine.RuntimeInitializeOnLoadManagerInitializerModule.dll_17866011957762935440.movedfrom
Library\Bee\artifacts\movedfrom\UnityEngine.ScreenCaptureModule.dll_16587427507856508280.movedfrom
Library\Bee\artifacts\movedfrom\UnityEngine.SharedInternalsModule.dll_17238216411873537167.movedfrom
Library\Bee\artifacts\movedfrom\UnityEngine.SpriteMaskModule.dll_13176125825791579479.movedfrom
Library\Bee\artifacts\movedfrom\UnityEngine.SpriteShapeModule.dll_12086489779253509546.movedfrom
Library\Bee\artifacts\movedfrom\UnityEngine.StreamingModule.dll_9832715663989705584.movedfrom
Library\Bee\artifacts\movedfrom\UnityEngine.SubstanceModule.dll_7286796804670720382.movedfrom
Library\Bee\artifacts\movedfrom\UnityEngine.SubsystemsModule.dll_2416294461332012394.movedfrom
Library\Bee\artifacts\movedfrom\UnityEngine.TerrainModule.dll_6400920709946149091.movedfrom
Library\Bee\artifacts\movedfrom\UnityEngine.TerrainPhysicsModule.dll_3260808218105619736.movedfrom
Library\Bee\artifacts\movedfrom\UnityEngine.TextCoreModule.dll_259864616101451186.movedfrom
Library\Bee\artifacts\movedfrom\UnityEngine.TextRenderingModule.dll_1112903103583880557.movedfrom
Library\Bee\artifacts\movedfrom\UnityEngine.TilemapModule.dll_17857066066216544748.movedfrom
Library\Bee\artifacts\movedfrom\UnityEngine.TLSModule.dll_9968348918510488457.movedfrom
Library\Bee\artifacts\movedfrom\UnityEngine.UIElementsModule.dll_2722083385397508449.movedfrom
Library\Bee\artifacts\movedfrom\UnityEngine.UIElementsNativeModule.dll_15815148834452399128.movedfrom
Library\Bee\artifacts\movedfrom\UnityEngine.UIModule.dll_15691048568307906522.movedfrom
Library\Bee\artifacts\movedfrom\UnityEngine.UmbraModule.dll_11592677058761425943.movedfrom
Library\Bee\artifacts\movedfrom\UnityEngine.UNETModule.dll_108889936111133630.movedfrom
Library\Bee\artifacts\movedfrom\UnityEngine.UnityAnalyticsModule.dll_5504946594283289735.movedfrom
Library\Bee\artifacts\movedfrom\UnityEngine.UnityConnectModule.dll_8191069421598719867.movedfrom
Library\Bee\artifacts\movedfrom\UnityEngine.UnityCurlModule.dll_503425340410086943.movedfrom
Library\Bee\artifacts\movedfrom\UnityEngine.UnityTestProtocolModule.dll_5116121344279505421.movedfrom
Library\Bee\artifacts\movedfrom\UnityEngine.UnityWebRequestAssetBundleModule.dll_15884465287775399064.movedfrom
Library\Bee\artifacts\movedfrom\UnityEngine.UnityWebRequestAudioModule.dll_8138776938572272284.movedfrom
Library\Bee\artifacts\movedfrom\UnityEngine.UnityWebRequestModule.dll_8991501884565916606.movedfrom
Library\Bee\artifacts\movedfrom\UnityEngine.UnityWebRequestTextureModule.dll_9512434312171295729.movedfrom
Library\Bee\artifacts\movedfrom\UnityEngine.UnityWebRequestWWWModule.dll_9254592758728229805.movedfrom
Library\Bee\artifacts\movedfrom\UnityEngine.VehiclesModule.dll_16331001208133580093.movedfrom
Library\Bee\artifacts\movedfrom\UnityEngine.VFXModule.dll_807631928296797430.movedfrom
Library\Bee\artifacts\movedfrom\UnityEngine.VideoModule.dll_5410598517883728969.movedfrom
Library\Bee\artifacts\movedfrom\UnityEngine.VirtualTexturingModule.dll_2083031022462115.movedfrom
Library\Bee\artifacts\movedfrom\UnityEngine.VRModule.dll_3212179306203544914.movedfrom
Library\Bee\artifacts\movedfrom\UnityEngine.WindModule.dll_16513413478743829678.movedfrom
Library\Bee\artifacts\movedfrom\UnityEngine.XRModule.dll_6868753677924551344.movedfrom
Library\Bee\artifacts\movedfrom\UnityEditor.WindowsStandalone.Extensions.dll_3754720431691426342.movedfrom